^C:\USERS\40127794\DESKTOP\CPSREPO\CPS\COURSEWORK_PART2\TEST_02_CUDA\RELEASE\KERNEL.CU.OBJ
C:\USERS\40127794\DESKTOP\CPSREPO\CPS\COURSEWORK_PART2\RELEASE\TEST_02_CUDA.EXE
C:\USERS\40127794\DESKTOP\CPSREPO\CPS\COURSEWORK_PART2\RELEASE\TEST_02_CUDA.PDB
