
,-1.96478,0.184182,-0.649592,-0.082725,-0.960734,-0.278059,-0.659035,0.488863,-0.222143,-0.962971
,0.0540161,1.62095,0.303411,-0.0423151,-0.673055,-0.442468,-0.94036,0.692833,-0.0265236,0.39609
,0.800354,-0.660433,-1.29552,0.209467,-0.628402,0.243787,0.00828402,-0.711243,-0.23787,-0.668639
,1.10626,1.98838,-3.53361,5.88497,-0.263996,0.138514,-0.0487452,0.223938,-0.406371,-0.182593
,1.0694,0.181541,-1.97992,0.556686,-1.45946,-0.481481,-0.259259,-0.518519,-0.37037,-0.925926
,1.86554,2.51337,-2.94028,2.62817,-3.13514,2.6455,-0.208,0.232,0.104,0.416
,1.8111,1.19599,-2.79034,1.53846,-0.0945946,-1.1164,-2.63467,-0.281377,-0.618421,-0.196356
,-0.324402,-1.50887,2.29851,-0.79432,0.878378,-3.78307,-1.92,-2.583,0.753918,-0.37931
,-1.7558,-0.485726,2.34051,-2.26935,2.41892,-1.46561,0.490667,-0.251012,-2.03135,-0.475309
,1.13019,0.988848,-2.97616,3.62509,0.0675676,0.851852,1.568,-0.323887,-3.71787,2.45679