^C:\USERS\40127794\DESKTOP\CPSREPO\CPS\COURSEWORK_PART2\LIBENUGRAPHICS\APP.CPP
/c /Zi /nologo /W3 /WX- /O2 /Oy- /D WIN32 /D NDEBUG /D _LIB /Gm- /EHsc /MD /GS /fp:precise /Zc:wchar_t /Zc:forScope /Fo"RELEASE\\" /Fd"RELEASE\VC120.PDB" /Gd /TP /analyze- C:\USERS\40127794\DESKTOP\CPSREPO\CPS\COURSEWORK_PART2\LIBENUGRAPHICS\APP.CPP
^C:\USERS\40127794\DESKTOP\CPSREPO\CPS\COURSEWORK_PART2\LIBENUGRAPHICS\ARC_BALL_CAMERA.CPP
/c /Zi /nologo /W3 /WX- /O2 /Oy- /D WIN32 /D NDEBUG /D _LIB /Gm- /EHsc /MD /GS /fp:precise /Zc:wchar_t /Zc:forScope /Fo"RELEASE\\" /Fd"RELEASE\VC120.PDB" /Gd /TP /analyze- C:\USERS\40127794\DESKTOP\CPSREPO\CPS\COURSEWORK_PART2\LIBENUGRAPHICS\ARC_BALL_CAMERA.CPP
^C:\USERS\40127794\DESKTOP\CPSREPO\CPS\COURSEWORK_PART2\LIBENUGRAPHICS\CHASE_CAMERA.CPP
/c /Zi /nologo /W3 /WX- /O2 /Oy- /D WIN32 /D NDEBUG /D _LIB /Gm- /EHsc /MD /GS /fp:precise /Zc:wchar_t /Zc:forScope /Fo"RELEASE\\" /Fd"RELEASE\VC120.PDB" /Gd /TP /analyze- C:\USERS\40127794\DESKTOP\CPSREPO\CPS\COURSEWORK_PART2\LIBENUGRAPHICS\CHASE_CAMERA.CPP
^C:\USERS\40127794\DESKTOP\CPSREPO\CPS\COURSEWORK_PART2\LIBENUGRAPHICS\CUBEMAP.CPP
/c /Zi /nologo /W3 /WX- /O2 /Oy- /D WIN32 /D NDEBUG /D _LIB /Gm- /EHsc /MD /GS /fp:precise /Zc:wchar_t /Zc:forScope /Fo"RELEASE\\" /Fd"RELEASE\VC120.PDB" /Gd /TP /analyze- C:\USERS\40127794\DESKTOP\CPSREPO\CPS\COURSEWORK_PART2\LIBENUGRAPHICS\CUBEMAP.CPP
^C:\USERS\40127794\DESKTOP\CPSREPO\CPS\COURSEWORK_PART2\LIBENUGRAPHICS\DEPTH_BUFFER.CPP
/c /Zi /nologo /W3 /WX- /O2 /Oy- /D WIN32 /D NDEBUG /D _LIB /Gm- /EHsc /MD /GS /fp:precise /Zc:wchar_t /Zc:forScope /Fo"RELEASE\\" /Fd"RELEASE\VC120.PDB" /Gd /TP /analyze- C:\USERS\40127794\DESKTOP\CPSREPO\CPS\COURSEWORK_PART2\LIBENUGRAPHICS\DEPTH_BUFFER.CPP
^C:\USERS\40127794\DESKTOP\CPSREPO\CPS\COURSEWORK_PART2\LIBENUGRAPHICS\DIRECTIONAL_LIGHT.CPP
/c /Zi /nologo /W3 /WX- /O2 /Oy- /D WIN32 /D NDEBUG /D _LIB /Gm- /EHsc /MD /GS /fp:precise /Zc:wchar_t /Zc:forScope /Fo"RELEASE\\" /Fd"RELEASE\VC120.PDB" /Gd /TP /analyze- C:\USERS\40127794\DESKTOP\CPSREPO\CPS\COURSEWORK_PART2\LIBENUGRAPHICS\DIRECTIONAL_LIGHT.CPP
^C:\USERS\40127794\DESKTOP\CPSREPO\CPS\COURSEWORK_PART2\LIBENUGRAPHICS\EFFECT.CPP
/c /Zi /nologo /W3 /WX- /O2 /Oy- /D WIN32 /D NDEBUG /D _LIB /Gm- /EHsc /MD /GS /fp:precise /Zc:wchar_t /Zc:forScope /Fo"RELEASE\\" /Fd"RELEASE\VC120.PDB" /Gd /TP /analyze- C:\USERS\40127794\DESKTOP\CPSREPO\CPS\COURSEWORK_PART2\LIBENUGRAPHICS\EFFECT.CPP
^C:\USERS\40127794\DESKTOP\CPSREPO\CPS\COURSEWORK_PART2\LIBENUGRAPHICS\FRAME_BUFFER.CPP
/c /Zi /nologo /W3 /WX- /O2 /Oy- /D WIN32 /D NDEBUG /D _LIB /Gm- /EHsc /MD /GS /fp:precise /Zc:wchar_t /Zc:forScope /Fo"RELEASE\\" /Fd"RELEASE\VC120.PDB" /Gd /TP /analyze- C:\USERS\40127794\DESKTOP\CPSREPO\CPS\COURSEWORK_PART2\LIBENUGRAPHICS\FRAME_BUFFER.CPP
^C:\USERS\40127794\DESKTOP\CPSREPO\CPS\COURSEWORK_PART2\LIBENUGRAPHICS\FREE_CAMERA.CPP
/c /Zi /nologo /W3 /WX- /O2 /Oy- /D WIN32 /D NDEBUG /D _LIB /Gm- /EHsc /MD /GS /fp:precise /Zc:wchar_t /Zc:forScope /Fo"RELEASE\\" /Fd"RELEASE\VC120.PDB" /Gd /TP /analyze- C:\USERS\40127794\DESKTOP\CPSREPO\CPS\COURSEWORK_PART2\LIBENUGRAPHICS\FREE_CAMERA.CPP
^C:\USERS\40127794\DESKTOP\CPSREPO\CPS\COURSEWORK_PART2\LIBENUGRAPHICS\GEOMETRY.CPP
/c /Zi /nologo /W3 /WX- /O2 /Oy- /D WIN32 /D NDEBUG /D _LIB /Gm- /EHsc /MD /GS /fp:precise /Zc:wchar_t /Zc:forScope /Fo"RELEASE\\" /Fd"RELEASE\VC120.PDB" /Gd /TP /analyze- C:\USERS\40127794\DESKTOP\CPSREPO\CPS\COURSEWORK_PART2\LIBENUGRAPHICS\GEOMETRY.CPP
^C:\USERS\40127794\DESKTOP\CPSREPO\CPS\COURSEWORK_PART2\LIBENUGRAPHICS\GEOMETRY_BUILDER.CPP
/c /Zi /nologo /W3 /WX- /O2 /Oy- /D WIN32 /D NDEBUG /D _LIB /Gm- /EHsc /MD /GS /fp:precise /Zc:wchar_t /Zc:forScope /Fo"RELEASE\\" /Fd"RELEASE\VC120.PDB" /Gd /TP /analyze- C:\USERS\40127794\DESKTOP\CPSREPO\CPS\COURSEWORK_PART2\LIBENUGRAPHICS\GEOMETRY_BUILDER.CPP
^C:\USERS\40127794\DESKTOP\CPSREPO\CPS\COURSEWORK_PART2\LIBENUGRAPHICS\RENDERER.CPP
/c /Zi /nologo /W3 /WX- /O2 /Oy- /D WIN32 /D NDEBUG /D _LIB /Gm- /EHsc /MD /GS /fp:precise /Zc:wchar_t /Zc:forScope /Fo"RELEASE\\" /Fd"RELEASE\VC120.PDB" /Gd /TP /analyze- C:\USERS\40127794\DESKTOP\CPSREPO\CPS\COURSEWORK_PART2\LIBENUGRAPHICS\RENDERER.CPP
^C:\USERS\40127794\DESKTOP\CPSREPO\CPS\COURSEWORK_PART2\LIBENUGRAPHICS\TARGET_CAMERA.CPP
/c /Zi /nologo /W3 /WX- /O2 /Oy- /D WIN32 /D NDEBUG /D _LIB /Gm- /EHsc /MD /GS /fp:precise /Zc:wchar_t /Zc:forScope /Fo"RELEASE\\" /Fd"RELEASE\VC120.PDB" /Gd /TP /analyze- C:\USERS\40127794\DESKTOP\CPSREPO\CPS\COURSEWORK_PART2\LIBENUGRAPHICS\TARGET_CAMERA.CPP
^C:\USERS\40127794\DESKTOP\CPSREPO\CPS\COURSEWORK_PART2\LIBENUGRAPHICS\TERRAIN.CPP
/c /Zi /nologo /W3 /WX- /O2 /Oy- /D WIN32 /D NDEBUG /D _LIB /Gm- /EHsc /MD /GS /fp:precise /Zc:wchar_t /Zc:forScope /Fo"RELEASE\\" /Fd"RELEASE\VC120.PDB" /Gd /TP /analyze- C:\USERS\40127794\DESKTOP\CPSREPO\CPS\COURSEWORK_PART2\LIBENUGRAPHICS\TERRAIN.CPP
^C:\USERS\40127794\DESKTOP\CPSREPO\CPS\COURSEWORK_PART2\LIBENUGRAPHICS\TEXTURE.CPP
/c /Zi /nologo /W3 /WX- /O2 /Oy- /D WIN32 /D NDEBUG /D _LIB /Gm- /EHsc /MD /GS /fp:precise /Zc:wchar_t /Zc:forScope /Fo"RELEASE\\" /Fd"RELEASE\VC120.PDB" /Gd /TP /analyze- C:\USERS\40127794\DESKTOP\CPSREPO\CPS\COURSEWORK_PART2\LIBENUGRAPHICS\TEXTURE.CPP
^C:\USERS\40127794\DESKTOP\CPSREPO\CPS\COURSEWORK_PART2\LIBENUGRAPHICS\UTIL.CPP
/c /Zi /nologo /W3 /WX- /O2 /Oy- /D WIN32 /D NDEBUG /D _LIB /Gm- /EHsc /MD /GS /fp:precise /Zc:wchar_t /Zc:forScope /Fo"RELEASE\\" /Fd"RELEASE\VC120.PDB" /Gd /TP /analyze- C:\USERS\40127794\DESKTOP\CPSREPO\CPS\COURSEWORK_PART2\LIBENUGRAPHICS\UTIL.CPP
