^C:\USERS\NOEPO\DESKTOP\USB\STU_40127794_COURSEWORK_PART2\02_GRAPHICAL_N_BODY\MAIN02.CPP|C:\USERS\NOEPO\DESKTOP\USB\STU_40127794_COURSEWORK_PART2\02_GRAPHICAL_N_BODY\N-BODYMANAGER.CPP|C:\USERS\NOEPO\DESKTOP\USB\STU_40127794_COURSEWORK_PART2\02_GRAPHICAL_N_BODY\PARTICLE.CPP
C:\USERS\NOEPO\DESKTOP\USB\STU_40127794_COURSEWORK_PART2\02_GRAPHICAL_N_BODY\RELEASE\VC120.PDB
C:\USERS\NOEPO\DESKTOP\USB\STU_40127794_COURSEWORK_PART2\02_GRAPHICAL_N_BODY\RELEASE\PARTICLE.OBJ
C:\USERS\NOEPO\DESKTOP\USB\STU_40127794_COURSEWORK_PART2\02_GRAPHICAL_N_BODY\RELEASE\N-BODYMANAGER.OBJ
C:\USERS\NOEPO\DESKTOP\USB\STU_40127794_COURSEWORK_PART2\02_GRAPHICAL_N_BODY\RELEASE\MAIN02.OBJ
^C:\USERS\NOEPO\DESKTOP\USB\STU_40127794_COURSEWORK_PART2\02_GRAPHICAL_N_BODY\PARTICLE.CPP
C:\USERS\NOEPO\DESKTOP\USB\STU_40127794_COURSEWORK_PART2\02_GRAPHICAL_N_BODY\RELEASE\VC120.PDB
^C:\USERS\NOEPO\DESKTOP\USB\STU_40127794_COURSEWORK_PART2\02_GRAPHICAL_N_BODY\MAIN02.CPP|C:\USERS\NOEPO\DESKTOP\USB\STU_40127794_COURSEWORK_PART2\02_GRAPHICAL_N_BODY\N-BODYMANAGER.CPP
C:\USERS\NOEPO\DESKTOP\USB\STU_40127794_COURSEWORK_PART2\02_GRAPHICAL_N_BODY\RELEASE\VC120.PDB
C:\USERS\NOEPO\DESKTOP\USB\STU_40127794_COURSEWORK_PART2\02_GRAPHICAL_N_BODY\RELEASE\N-BODYMANAGER.OBJ
C:\USERS\NOEPO\DESKTOP\USB\STU_40127794_COURSEWORK_PART2\02_GRAPHICAL_N_BODY\RELEASE\MAIN02.OBJ
^C:\USERS\NOEPO\DESKTOP\USB\STU_40127794_COURSEWORK_PART2\02_GRAPHICAL_N_BODY\N-BODYMANAGER.CPP
C:\USERS\NOEPO\DESKTOP\USB\STU_40127794_COURSEWORK_PART2\02_GRAPHICAL_N_BODY\RELEASE\VC120.PDB
^C:\USERS\NOEPO\DESKTOP\USB\STU_40127794_COURSEWORK_PART2\02_GRAPHICAL_N_BODY\MAIN02.CPP
C:\USERS\NOEPO\DESKTOP\USB\STU_40127794_COURSEWORK_PART2\02_GRAPHICAL_N_BODY\RELEASE\VC120.PDB
C:\USERS\NOEPO\DESKTOP\USB\STU_40127794_COURSEWORK_PART2\02_GRAPHICAL_N_BODY\RELEASE\MAIN02.OBJ
^C:\USERS\NOEPO\DESKTOP\ROCKSTAR\STU_40127794_COURSEWORK_PART2\02_GRAPHICAL_N_BODY\MAIN02.CPP|C:\USERS\NOEPO\DESKTOP\ROCKSTAR\STU_40127794_COURSEWORK_PART2\02_GRAPHICAL_N_BODY\N-BODYMANAGER.CPP|C:\USERS\NOEPO\DESKTOP\ROCKSTAR\STU_40127794_COURSEWORK_PART2\02_GRAPHICAL_N_BODY\PARTICLE.CPP
C:\USERS\NOEPO\DESKTOP\ROCKSTAR\STU_40127794_COURSEWORK_PART2\02_GRAPHICAL_N_BODY\RELEASE\VC120.PDB
C:\USERS\NOEPO\DESKTOP\ROCKSTAR\STU_40127794_COURSEWORK_PART2\02_GRAPHICAL_N_BODY\RELEASE\PARTICLE.OBJ
C:\USERS\NOEPO\DESKTOP\ROCKSTAR\STU_40127794_COURSEWORK_PART2\02_GRAPHICAL_N_BODY\RELEASE\N-BODYMANAGER.OBJ
C:\USERS\NOEPO\DESKTOP\ROCKSTAR\STU_40127794_COURSEWORK_PART2\02_GRAPHICAL_N_BODY\RELEASE\MAIN02.OBJ
^C:\USERS\NOEPO\DESKTOP\ROCKSTAR\STU_40127794_COURSEWORK_PART2\02_GRAPHICAL_N_BODY\N-BODYMANAGER.CPP
C:\USERS\NOEPO\DESKTOP\ROCKSTAR\STU_40127794_COURSEWORK_PART2\02_GRAPHICAL_N_BODY\RELEASE\VC120.PDB
^C:\USERS\NOEPO\DESKTOP\ROCKSTAR\STU_40127794_COURSEWORK_PART2\02_GRAPHICAL_N_BODY\PARTICLE.CPP
C:\USERS\NOEPO\DESKTOP\ROCKSTAR\STU_40127794_COURSEWORK_PART2\02_GRAPHICAL_N_BODY\RELEASE\VC120.PDB
^C:\USERS\NOEPO\DESKTOP\ROCKSTAR\STU_40127794_COURSEWORK_PART2\02_GRAPHICAL_N_BODY\MAIN02.CPP
C:\USERS\NOEPO\DESKTOP\ROCKSTAR\STU_40127794_COURSEWORK_PART2\02_GRAPHICAL_N_BODY\RELEASE\VC120.PDB
C:\USERS\NOEPO\DESKTOP\ROCKSTAR\STU_40127794_COURSEWORK_PART2\02_GRAPHICAL_N_BODY\RELEASE\MAIN02.OBJ
