^C:\USERS\NOEPO\DESKTOP\USB\STU_40127794_COURSEWORK_PART2\03_PARALLEL_N_BODY\RELEASE\MAIN03.OBJ|C:\USERS\NOEPO\DESKTOP\USB\STU_40127794_COURSEWORK_PART2\03_PARALLEL_N_BODY\RELEASE\N-BODYMANAGER.OBJ|C:\USERS\NOEPO\DESKTOP\USB\STU_40127794_COURSEWORK_PART2\03_PARALLEL_N_BODY\RELEASE\N-BODYMANAGERPAR.CU.OBJ|C:\USERS\NOEPO\DESKTOP\USB\STU_40127794_COURSEWORK_PART2\03_PARALLEL_N_BODY\RELEASE\PARTICLE.OBJ|C:\USERS\NOEPO\DESKTOP\USB\STU_40127794_COURSEWORK_PART2\RELEASE\LIBENUGRAPHICS.LIB
C:\USERS\NOEPO\DESKTOP\USB\STU_40127794_COURSEWORK_PART2\RELEASE\03_PARALLEL_N_BODY.EXE
C:\USERS\NOEPO\DESKTOP\USB\STU_40127794_COURSEWORK_PART2\RELEASE\03_PARALLEL_N_BODY.PDB
^C:\USERS\NOEPO\DESKTOP\ROCKSTAR\NBODY\03_PARALLEL_N_BODY\RELEASE\MAIN03.OBJ|C:\USERS\NOEPO\DESKTOP\ROCKSTAR\NBODY\03_PARALLEL_N_BODY\RELEASE\N-BODYMANAGER.OBJ|C:\USERS\NOEPO\DESKTOP\ROCKSTAR\NBODY\03_PARALLEL_N_BODY\RELEASE\N-BODYMANAGERPAR.CU.OBJ|C:\USERS\NOEPO\DESKTOP\ROCKSTAR\NBODY\03_PARALLEL_N_BODY\RELEASE\PARTICLE.OBJ|C:\USERS\NOEPO\DESKTOP\ROCKSTAR\NBODY\RELEASE\LIBENUGRAPHICS.LIB
C:\USERS\NOEPO\DESKTOP\ROCKSTAR\NBODY\RELEASE\03_PARALLEL_N_BODY.EXE
C:\USERS\NOEPO\DESKTOP\ROCKSTAR\NBODY\RELEASE\03_PARALLEL_N_BODY.PDB
