^C:\USERS\NOEPO\DESKTOP\USB\STU_40127794_COURSEWORK_PART2\03_PARALLEL_N_BODY\RELEASE\MAIN03.OBJ|C:\USERS\NOEPO\DESKTOP\USB\STU_40127794_COURSEWORK_PART2\03_PARALLEL_N_BODY\RELEASE\N-BODYMANAGER.OBJ|C:\USERS\NOEPO\DESKTOP\USB\STU_40127794_COURSEWORK_PART2\03_PARALLEL_N_BODY\RELEASE\N-BODYMANAGERPAR.CU.OBJ|C:\USERS\NOEPO\DESKTOP\USB\STU_40127794_COURSEWORK_PART2\03_PARALLEL_N_BODY\RELEASE\PARTICLE.OBJ|C:\USERS\NOEPO\DESKTOP\USB\STU_40127794_COURSEWORK_PART2\RELEASE\LIBENUGRAPHICS.LIB
C:\WINDOWS\GLOBALIZATION\SORTING\SORTDEFAULT.NLS
C:\PROGRAM FILES\NVIDIA GPU COMPUTING TOOLKIT\CUDA\V6.5\LIB\WIN32\CUDART.LIB
C:\PROGRAM FILES (X86)\WINDOWS KITS\8.1\LIB\WINV6.3\UM\X86\KERNEL32.LIB
C:\PROGRAM FILES (X86)\WINDOWS KITS\8.1\LIB\WINV6.3\UM\X86\USER32.LIB
C:\PROGRAM FILES (X86)\WINDOWS KITS\8.1\LIB\WINV6.3\UM\X86\GDI32.LIB
C:\PROGRAM FILES (X86)\WINDOWS KITS\8.1\LIB\WINV6.3\UM\X86\WINSPOOL.LIB
C:\PROGRAM FILES (X86)\WINDOWS KITS\8.1\LIB\WINV6.3\UM\X86\COMDLG32.LIB
C:\PROGRAM FILES (X86)\WINDOWS KITS\8.1\LIB\WINV6.3\UM\X86\ADVAPI32.LIB
C:\PROGRAM FILES (X86)\WINDOWS KITS\8.1\LIB\WINV6.3\UM\X86\SHELL32.LIB
C:\PROGRAM FILES (X86)\WINDOWS KITS\8.1\LIB\WINV6.3\UM\X86\OLE32.LIB
C:\PROGRAM FILES (X86)\WINDOWS KITS\8.1\LIB\WINV6.3\UM\X86\OLEAUT32.LIB
C:\PROGRAM FILES (X86)\WINDOWS KITS\8.1\LIB\WINV6.3\UM\X86\UUID.LIB
C:\PROGRAM FILES (X86)\WINDOWS KITS\8.1\LIB\WINV6.3\UM\X86\ODBC32.LIB
C:\PROGRAM FILES (X86)\WINDOWS KITS\8.1\LIB\WINV6.3\UM\X86\ODBCCP32.LIB
C:\PROGRAM FILES (X86)\WINDOWS KITS\8.1\LIB\WINV6.3\UM\X86\OPENGL32.LIB
C:\PROGRAM FILES (X86)\WINDOWS KITS\8.1\LIB\WINV6.3\UM\X86\GLU32.LIB
C:\USERS\NOEPO\DESKTOP\USB\STU_40127794_COURSEWORK_PART2\LIB\GLEW32.LIB
C:\USERS\NOEPO\DESKTOP\USB\STU_40127794_COURSEWORK_PART2\LIB\GLFW3DLL.LIB
C:\USERS\NOEPO\DESKTOP\USB\STU_40127794_COURSEWORK_PART2\LIB\FREEIMAGE.LIB
C:\USERS\NOEPO\DESKTOP\USB\STU_40127794_COURSEWORK_PART2\LIB\ASSIMP.LIB
C:\USERS\NOEPO\DESKTOP\USB\STU_40127794_COURSEWORK_PART2\03_PARALLEL_N_BODY\RELEASE\N-BODYMANAGERPAR.CU.OBJ
C:\USERS\NOEPO\DESKTOP\USB\STU_40127794_COURSEWORK_PART2\03_PARALLEL_N_BODY\RELEASE\MAIN03.OBJ
C:\USERS\NOEPO\DESKTOP\USB\STU_40127794_COURSEWORK_PART2\03_PARALLEL_N_BODY\RELEASE\N-BODYMANAGER.OBJ
C:\USERS\NOEPO\DESKTOP\USB\STU_40127794_COURSEWORK_PART2\03_PARALLEL_N_BODY\RELEASE\PARTICLE.OBJ
C:\USERS\NOEPO\DESKTOP\USB\STU_40127794_COURSEWORK_PART2\RELEASE\LIBENUGRAPHICS.LIB
C:\PROGRAM FILES (X86)\MICROSOFT VISUAL STUDIO 12.0\VC\BIN\C2.DLL
C:\PROGRAM FILES (X86)\MICROSOFT VISUAL STUDIO 12.0\VC\LIB\MSVCPRT.LIB
C:\PROGRAM FILES (X86)\MICROSOFT VISUAL STUDIO 12.0\VC\LIB\MSVCRT.LIB
C:\PROGRAM FILES (X86)\MICROSOFT VISUAL STUDIO 12.0\VC\LIB\OLDNAMES.LIB
C:\PROGRAM FILES (X86)\MICROSOFT VISUAL STUDIO 12.0\VC\LIB\VCOMP.LIB
C:\PROGRAM FILES (X86)\MICROSOFT VISUAL STUDIO 12.0\VC\BIN\1033\LINKUI.DLL
C:\PROGRAM FILES (X86)\WINDOWS KITS\8.1\BIN\X86\RC.EXE
C:\PROGRAM FILES (X86)\MICROSOFT VISUAL STUDIO 12.0\VC\BIN\CVTRES.EXE
C:\WINDOWS\SYSTEM32\TZRES.DLL
C:\WINDOWS\SYSTEM32\RSAENH.DLL
^C:\USERS\NOEPO\DESKTOP\ROCKSTAR\NBODY\03_PARALLEL_N_BODY\RELEASE\MAIN03.OBJ|C:\USERS\NOEPO\DESKTOP\ROCKSTAR\NBODY\03_PARALLEL_N_BODY\RELEASE\N-BODYMANAGER.OBJ|C:\USERS\NOEPO\DESKTOP\ROCKSTAR\NBODY\03_PARALLEL_N_BODY\RELEASE\N-BODYMANAGERPAR.CU.OBJ|C:\USERS\NOEPO\DESKTOP\ROCKSTAR\NBODY\03_PARALLEL_N_BODY\RELEASE\PARTICLE.OBJ|C:\USERS\NOEPO\DESKTOP\ROCKSTAR\NBODY\RELEASE\LIBENUGRAPHICS.LIB
C:\WINDOWS\GLOBALIZATION\SORTING\SORTDEFAULT.NLS
C:\PROGRAM FILES\NVIDIA GPU COMPUTING TOOLKIT\CUDA\V6.5\LIB\WIN32\CUDART.LIB
C:\PROGRAM FILES (X86)\WINDOWS KITS\8.1\LIB\WINV6.3\UM\X86\KERNEL32.LIB
C:\PROGRAM FILES (X86)\WINDOWS KITS\8.1\LIB\WINV6.3\UM\X86\USER32.LIB
C:\PROGRAM FILES (X86)\WINDOWS KITS\8.1\LIB\WINV6.3\UM\X86\GDI32.LIB
C:\PROGRAM FILES (X86)\WINDOWS KITS\8.1\LIB\WINV6.3\UM\X86\WINSPOOL.LIB
C:\PROGRAM FILES (X86)\WINDOWS KITS\8.1\LIB\WINV6.3\UM\X86\COMDLG32.LIB
C:\PROGRAM FILES (X86)\WINDOWS KITS\8.1\LIB\WINV6.3\UM\X86\ADVAPI32.LIB
C:\PROGRAM FILES (X86)\WINDOWS KITS\8.1\LIB\WINV6.3\UM\X86\SHELL32.LIB
C:\PROGRAM FILES (X86)\WINDOWS KITS\8.1\LIB\WINV6.3\UM\X86\OLE32.LIB
C:\PROGRAM FILES (X86)\WINDOWS KITS\8.1\LIB\WINV6.3\UM\X86\OLEAUT32.LIB
C:\PROGRAM FILES (X86)\WINDOWS KITS\8.1\LIB\WINV6.3\UM\X86\UUID.LIB
C:\PROGRAM FILES (X86)\WINDOWS KITS\8.1\LIB\WINV6.3\UM\X86\ODBC32.LIB
C:\PROGRAM FILES (X86)\WINDOWS KITS\8.1\LIB\WINV6.3\UM\X86\ODBCCP32.LIB
C:\PROGRAM FILES (X86)\WINDOWS KITS\8.1\LIB\WINV6.3\UM\X86\OPENGL32.LIB
C:\PROGRAM FILES (X86)\WINDOWS KITS\8.1\LIB\WINV6.3\UM\X86\GLU32.LIB
C:\USERS\NOEPO\DESKTOP\ROCKSTAR\NBODY\LIB\GLEW32.LIB
C:\USERS\NOEPO\DESKTOP\ROCKSTAR\NBODY\LIB\GLFW3DLL.LIB
C:\USERS\NOEPO\DESKTOP\ROCKSTAR\NBODY\LIB\FREEIMAGE.LIB
C:\USERS\NOEPO\DESKTOP\ROCKSTAR\NBODY\LIB\ASSIMP.LIB
C:\USERS\NOEPO\DESKTOP\ROCKSTAR\NBODY\03_PARALLEL_N_BODY\RELEASE\N-BODYMANAGERPAR.CU.OBJ
C:\USERS\NOEPO\DESKTOP\ROCKSTAR\NBODY\03_PARALLEL_N_BODY\RELEASE\MAIN03.OBJ
C:\USERS\NOEPO\DESKTOP\ROCKSTAR\NBODY\03_PARALLEL_N_BODY\RELEASE\N-BODYMANAGER.OBJ
C:\USERS\NOEPO\DESKTOP\ROCKSTAR\NBODY\03_PARALLEL_N_BODY\RELEASE\PARTICLE.OBJ
C:\USERS\NOEPO\DESKTOP\ROCKSTAR\NBODY\RELEASE\LIBENUGRAPHICS.LIB
C:\PROGRAM FILES (X86)\MICROSOFT VISUAL STUDIO 12.0\VC\BIN\C2.DLL
C:\PROGRAM FILES (X86)\MICROSOFT VISUAL STUDIO 12.0\VC\LIB\MSVCPRT.LIB
C:\PROGRAM FILES (X86)\MICROSOFT VISUAL STUDIO 12.0\VC\LIB\MSVCRT.LIB
C:\PROGRAM FILES (X86)\MICROSOFT VISUAL STUDIO 12.0\VC\LIB\OLDNAMES.LIB
C:\PROGRAM FILES (X86)\MICROSOFT VISUAL STUDIO 12.0\VC\LIB\VCOMP.LIB
C:\PROGRAM FILES (X86)\MICROSOFT VISUAL STUDIO 12.0\VC\BIN\1033\LINKUI.DLL
C:\PROGRAM FILES (X86)\WINDOWS KITS\8.1\BIN\X86\RC.EXE
C:\PROGRAM FILES (X86)\MICROSOFT VISUAL STUDIO 12.0\VC\BIN\CVTRES.EXE
C:\WINDOWS\SYSTEM32\TZRES.DLL
C:\WINDOWS\SYSTEM32\RSAENH.DLL
