^C:\USERS\NOEPO\DESKTOP\ROCKSTAR\NBODY\LIBENUGRAPHICS\DEBUG\APP.OBJ|C:\USERS\NOEPO\DESKTOP\ROCKSTAR\NBODY\LIBENUGRAPHICS\DEBUG\ARC_BALL_CAMERA.OBJ|C:\USERS\NOEPO\DESKTOP\ROCKSTAR\NBODY\LIBENUGRAPHICS\DEBUG\CHASE_CAMERA.OBJ|C:\USERS\NOEPO\DESKTOP\ROCKSTAR\NBODY\LIBENUGRAPHICS\DEBUG\CUBEMAP.OBJ|C:\USERS\NOEPO\DESKTOP\ROCKSTAR\NBODY\LIBENUGRAPHICS\DEBUG\DEPTH_BUFFER.OBJ|C:\USERS\NOEPO\DESKTOP\ROCKSTAR\NBODY\LIBENUGRAPHICS\DEBUG\DIRECTIONAL_LIGHT.OBJ|C:\USERS\NOEPO\DESKTOP\ROCKSTAR\NBODY\LIBENUGRAPHICS\DEBUG\EFFECT.OBJ|C:\USERS\NOEPO\DESKTOP\ROCKSTAR\NBODY\LIBENUGRAPHICS\DEBUG\FRAME_BUFFER.OBJ|C:\USERS\NOEPO\DESKTOP\ROCKSTAR\NBODY\LIBENUGRAPHICS\DEBUG\FREE_CAMERA.OBJ|C:\USERS\NOEPO\DESKTOP\ROCKSTAR\NBODY\LIBENUGRAPHICS\DEBUG\GEOMETRY.OBJ|C:\USERS\NOEPO\DESKTOP\ROCKSTAR\NBODY\LIBENUGRAPHICS\DEBUG\GEOMETRY_BUILDER.OBJ|C:\USERS\NOEPO\DESKTOP\ROCKSTAR\NBODY\LIBENUGRAPHICS\DEBUG\RENDERER.OBJ|C:\USERS\NOEPO\DESKTOP\ROCKSTAR\NBODY\LIBENUGRAPHICS\DEBUG\STDAFX.OBJ|C:\USERS\NOEPO\DESKTOP\ROCKSTAR\NBODY\LIBENUGRAPHICS\DEBUG\TARGET_CAMERA.OBJ|C:\USERS\NOEPO\DESKTOP\ROCKSTAR\NBODY\LIBENUGRAPHICS\DEBUG\TERRAIN.OBJ|C:\USERS\NOEPO\DESKTOP\ROCKSTAR\NBODY\LIBENUGRAPHICS\DEBUG\TEXTURE.OBJ|C:\USERS\NOEPO\DESKTOP\ROCKSTAR\NBODY\LIBENUGRAPHICS\DEBUG\UTIL.OBJ
C:\WINDOWS\GLOBALIZATION\SORTING\SORTDEFAULT.NLS
C:\WINDOWS\SYSTEM32\TZRES.DLL
C:\USERS\NOEPO\DESKTOP\ROCKSTAR\NBODY\LIBENUGRAPHICS\DEBUG\APP.OBJ
C:\USERS\NOEPO\DESKTOP\ROCKSTAR\NBODY\LIBENUGRAPHICS\DEBUG\ARC_BALL_CAMERA.OBJ
C:\USERS\NOEPO\DESKTOP\ROCKSTAR\NBODY\LIBENUGRAPHICS\DEBUG\CHASE_CAMERA.OBJ
C:\USERS\NOEPO\DESKTOP\ROCKSTAR\NBODY\LIBENUGRAPHICS\DEBUG\CUBEMAP.OBJ
C:\USERS\NOEPO\DESKTOP\ROCKSTAR\NBODY\LIBENUGRAPHICS\DEBUG\DEPTH_BUFFER.OBJ
C:\USERS\NOEPO\DESKTOP\ROCKSTAR\NBODY\LIBENUGRAPHICS\DEBUG\DIRECTIONAL_LIGHT.OBJ
C:\USERS\NOEPO\DESKTOP\ROCKSTAR\NBODY\LIBENUGRAPHICS\DEBUG\EFFECT.OBJ
C:\USERS\NOEPO\DESKTOP\ROCKSTAR\NBODY\LIBENUGRAPHICS\DEBUG\FRAME_BUFFER.OBJ
C:\USERS\NOEPO\DESKTOP\ROCKSTAR\NBODY\LIBENUGRAPHICS\DEBUG\FREE_CAMERA.OBJ
C:\USERS\NOEPO\DESKTOP\ROCKSTAR\NBODY\LIBENUGRAPHICS\DEBUG\GEOMETRY.OBJ
C:\USERS\NOEPO\DESKTOP\ROCKSTAR\NBODY\LIBENUGRAPHICS\DEBUG\GEOMETRY_BUILDER.OBJ
C:\USERS\NOEPO\DESKTOP\ROCKSTAR\NBODY\LIBENUGRAPHICS\DEBUG\RENDERER.OBJ
C:\USERS\NOEPO\DESKTOP\ROCKSTAR\NBODY\LIBENUGRAPHICS\DEBUG\STDAFX.OBJ
C:\USERS\NOEPO\DESKTOP\ROCKSTAR\NBODY\LIBENUGRAPHICS\DEBUG\TARGET_CAMERA.OBJ
C:\USERS\NOEPO\DESKTOP\ROCKSTAR\NBODY\LIBENUGRAPHICS\DEBUG\TERRAIN.OBJ
C:\USERS\NOEPO\DESKTOP\ROCKSTAR\NBODY\LIBENUGRAPHICS\DEBUG\TEXTURE.OBJ
C:\USERS\NOEPO\DESKTOP\ROCKSTAR\NBODY\LIBENUGRAPHICS\DEBUG\UTIL.OBJ
