^C:\USERS\40127794\DESKTOP\CPSREPO\CPS\COURSEWORK_PART2\02_GRAPHICAL_N_BODY\DEBUG\MAIN02.OBJ|C:\USERS\40127794\DESKTOP\CPSREPO\CPS\COURSEWORK_PART2\02_GRAPHICAL_N_BODY\DEBUG\N-BODYMANAGER.OBJ|C:\USERS\40127794\DESKTOP\CPSREPO\CPS\COURSEWORK_PART2\02_GRAPHICAL_N_BODY\DEBUG\PARTICLE.OBJ|C:\USERS\40127794\DESKTOP\CPSREPO\CPS\COURSEWORK_PART2\DEBUG\LIBENUGRAPHICS.LIB
C:\PROGRAM FILES (X86)\WINDOWS KITS\8.1\LIB\WINV6.3\UM\X86\OPENGL32.LIB
C:\PROGRAM FILES (X86)\WINDOWS KITS\8.1\LIB\WINV6.3\UM\X86\GLU32.LIB
C:\USERS\40127794\DESKTOP\CPSREPO\CPS\COURSEWORK_PART2\LIB\GLEW32.LIB
C:\USERS\40127794\DESKTOP\CPSREPO\CPS\COURSEWORK_PART2\LIB\GLFW3DLL.LIB
C:\USERS\40127794\DESKTOP\CPSREPO\CPS\COURSEWORK_PART2\LIB\FREEIMAGE.LIB
C:\USERS\40127794\DESKTOP\CPSREPO\CPS\COURSEWORK_PART2\LIB\ASSIMP.LIB
C:\PROGRAM FILES (X86)\WINDOWS KITS\8.1\LIB\WINV6.3\UM\X86\KERNEL32.LIB
C:\PROGRAM FILES (X86)\WINDOWS KITS\8.1\LIB\WINV6.3\UM\X86\USER32.LIB
C:\PROGRAM FILES (X86)\WINDOWS KITS\8.1\LIB\WINV6.3\UM\X86\GDI32.LIB
C:\PROGRAM FILES (X86)\WINDOWS KITS\8.1\LIB\WINV6.3\UM\X86\WINSPOOL.LIB
C:\PROGRAM FILES (X86)\WINDOWS KITS\8.1\LIB\WINV6.3\UM\X86\COMDLG32.LIB
C:\PROGRAM FILES (X86)\WINDOWS KITS\8.1\LIB\WINV6.3\UM\X86\ADVAPI32.LIB
C:\PROGRAM FILES (X86)\WINDOWS KITS\8.1\LIB\WINV6.3\UM\X86\SHELL32.LIB
C:\PROGRAM FILES (X86)\WINDOWS KITS\8.1\LIB\WINV6.3\UM\X86\OLE32.LIB
C:\PROGRAM FILES (X86)\WINDOWS KITS\8.1\LIB\WINV6.3\UM\X86\OLEAUT32.LIB
C:\PROGRAM FILES (X86)\WINDOWS KITS\8.1\LIB\WINV6.3\UM\X86\UUID.LIB
C:\PROGRAM FILES (X86)\WINDOWS KITS\8.1\LIB\WINV6.3\UM\X86\ODBC32.LIB
C:\PROGRAM FILES (X86)\WINDOWS KITS\8.1\LIB\WINV6.3\UM\X86\ODBCCP32.LIB
C:\USERS\40127794\DESKTOP\CPSREPO\CPS\COURSEWORK_PART2\02_GRAPHICAL_N_BODY\DEBUG\MAIN02.OBJ
C:\USERS\40127794\DESKTOP\CPSREPO\CPS\COURSEWORK_PART2\02_GRAPHICAL_N_BODY\DEBUG\N-BODYMANAGER.OBJ
C:\USERS\40127794\DESKTOP\CPSREPO\CPS\COURSEWORK_PART2\02_GRAPHICAL_N_BODY\DEBUG\PARTICLE.OBJ
C:\USERS\40127794\DESKTOP\CPSREPO\CPS\COURSEWORK_PART2\DEBUG\LIBENUGRAPHICS.LIB
C:\WINDOWS\SYSTEM32\TZRES.DLL
C:\WINDOWS\GLOBALIZATION\SORTING\SORTDEFAULT.NLS
C:\PROGRAM FILES (X86)\MICROSOFT VISUAL STUDIO 12.0\VC\LIB\MSVCPRTD.LIB
C:\PROGRAM FILES (X86)\MICROSOFT VISUAL STUDIO 12.0\VC\LIB\MSVCRTD.LIB
C:\PROGRAM FILES (X86)\MICROSOFT VISUAL STUDIO 12.0\VC\LIB\OLDNAMES.LIB
C:\PROGRAM FILES (X86)\MICROSOFT VISUAL STUDIO 12.0\VC\LIB\VCOMPD.LIB
C:\PROGRAM FILES (X86)\MICROSOFT VISUAL STUDIO 12.0\VC\BIN\LINK.EXE
C:\WINDOWS\SYSTEM32\RSAENH.DLL
C:\PROGRAM FILES (X86)\WINDOWS KITS\8.1\BIN\X86\RC.EXE
C:\PROGRAM FILES (X86)\MICROSOFT VISUAL STUDIO 12.0\VC\BIN\CVTRES.EXE
