^C:\USERS\NOEPO\DESKTOP\ROCKSTAR\LINPACK1000\ORIGINALSEQUENTIAL\00_MAIN.CPP
C:\USERS\NOEPO\DESKTOP\ROCKSTAR\LINPACK1000\ORIGINALSEQUENTIAL\RELEASE\VC120.PDB
C:\USERS\NOEPO\DESKTOP\ROCKSTAR\LINPACK1000\ORIGINALSEQUENTIAL\RELEASE\00_MAIN.OBJ
