^C:\USERS\40127794\DESKTOP\CPSREPO\CPS\COURSEWORK_PART2\TEST_04_CUDA\RELEASE\KERNEL.CU.OBJ
/OUT:"C:\USERS\40127794\DESKTOP\CPSREPO\CPS\COURSEWORK_PART2\RELEASE\TEST_04_CUDA.EXE" /NOLOGO /LIBPATH:"C:\Program Files\NVIDIA GPU Computing Toolkit\CUDA\v6.5\lib\Win32" cudart.lib kernel32.lib user32.lib gdi32.lib winspool.lib comdlg32.lib advapi32.lib shell32.lib ole32.lib oleaut32.lib uuid.lib odbc32.lib odbccp32.lib kernel32.lib user32.lib gdi32.lib winspool.lib comdlg32.lib advapi32.lib shell32.lib ole32.lib oleaut32.lib uuid.lib odbc32.lib odbccp32.lib /MANIFEST /MANIFESTUAC:"level='asInvoker' uiAccess='false'" /manifest:embed /DEBUG /PDB:"C:\USERS\40127794\DESKTOP\CPSREPO\CPS\COURSEWORK_PART2\RELEASE\TEST_04_CUDA.PDB" /SUBSYSTEM:CONSOLE /OPT:REF /OPT:ICF /LTCG /TLBID:1 /DYNAMICBASE /NXCOMPAT /IMPLIB:"C:\USERS\40127794\DESKTOP\CPSREPO\CPS\COURSEWORK_PART2\RELEASE\TEST_04_CUDA.LIB" /MACHINE:X86 /SAFESEH RELEASE\KERNEL.CU.OBJ
^C:\USERS\40127794\DESKTOP\CPSREPO\CPS\COURSEWORK_PART2\TEST_04_CUDA\RELEASE\KERNEL.CU.OBJ|C:\USERS\40127794\DESKTOP\CPSREPO\CPS\COURSEWORK_PART2\TEST_04_CUDA\RELEASE\MAIN.CU.OBJ
/OUT:"C:\USERS\40127794\DESKTOP\CPSREPO\CPS\COURSEWORK_PART2\RELEASE\TEST_04_CUDA.EXE" /NOLOGO /LIBPATH:"C:\Program Files\NVIDIA GPU Computing Toolkit\CUDA\v6.5\lib\Win32" cudart.lib kernel32.lib user32.lib gdi32.lib winspool.lib comdlg32.lib advapi32.lib shell32.lib ole32.lib oleaut32.lib uuid.lib odbc32.lib odbccp32.lib kernel32.lib user32.lib gdi32.lib winspool.lib comdlg32.lib advapi32.lib shell32.lib ole32.lib oleaut32.lib uuid.lib odbc32.lib odbccp32.lib /MANIFEST /MANIFESTUAC:"level='asInvoker' uiAccess='false'" /manifest:embed /DEBUG /PDB:"C:\USERS\40127794\DESKTOP\CPSREPO\CPS\COURSEWORK_PART2\RELEASE\TEST_04_CUDA.PDB" /SUBSYSTEM:CONSOLE /OPT:REF /OPT:ICF /LTCG /TLBID:1 /DYNAMICBASE /NXCOMPAT /IMPLIB:"C:\USERS\40127794\DESKTOP\CPSREPO\CPS\COURSEWORK_PART2\RELEASE\TEST_04_CUDA.LIB" /MACHINE:X86 /SAFESEH RELEASE\KERNEL.CU.OBJRELEASE\MAIN.CU.OBJ
