^C:\USERS\40127794\DESKTOP\CPSREPO\CPS\COURSEWORK_PART2\BASIC_N_BODY\MAIN.CPP|C:\USERS\40127794\DESKTOP\CPSREPO\CPS\COURSEWORK_PART2\BASIC_N_BODY\PARTICLE.CPP
C:\USERS\40127794\DESKTOP\CPSREPO\CPS\COURSEWORK_PART2\BASIC_N_BODY\DEBUG\VC120.PDB
C:\USERS\40127794\DESKTOP\CPSREPO\CPS\COURSEWORK_PART2\BASIC_N_BODY\DEBUG\VC120.IDB
C:\USERS\40127794\DESKTOP\CPSREPO\CPS\COURSEWORK_PART2\BASIC_N_BODY\DEBUG\PARTICLE.OBJ
C:\USERS\40127794\DESKTOP\CPSREPO\CPS\COURSEWORK_PART2\BASIC_N_BODY\DEBUG\MAIN.OBJ
^C:\USERS\40127794\DESKTOP\CPSREPO\CPS\COURSEWORK_PART2\BASIC_N_BODY\MAIN.CPP
C:\USERS\40127794\DESKTOP\CPSREPO\CPS\COURSEWORK_PART2\BASIC_N_BODY\DEBUG\VC120.PDB
C:\USERS\40127794\DESKTOP\CPSREPO\CPS\COURSEWORK_PART2\BASIC_N_BODY\DEBUG\VC120.IDB
C:\USERS\40127794\DESKTOP\CPSREPO\CPS\COURSEWORK_PART2\BASIC_N_BODY\DEBUG\MAIN.OBJ
^C:\USERS\40127794\DESKTOP\CPSREPO\CPS\COURSEWORK_PART2\BASIC_N_BODY\PARTICLE.CPP
C:\USERS\40127794\DESKTOP\CPSREPO\CPS\COURSEWORK_PART2\BASIC_N_BODY\DEBUG\VC120.PDB
C:\USERS\40127794\DESKTOP\CPSREPO\CPS\COURSEWORK_PART2\BASIC_N_BODY\DEBUG\VC120.IDB
C:\USERS\40127794\DESKTOP\CPSREPO\CPS\COURSEWORK_PART2\BASIC_N_BODY\DEBUG\PARTICLE.OBJ
