^C:\USERS\40127794\DESKTOP\CPSREPO\CPS\COURSEWORK_PART2\BASIC_N_BODY\DEBUG\MAIN.OBJ|C:\USERS\40127794\DESKTOP\CPSREPO\CPS\COURSEWORK_PART2\BASIC_N_BODY\DEBUG\PARTICLE.OBJ
C:\USERS\40127794\DESKTOP\CPSREPO\CPS\COURSEWORK_PART2\DEBUG\BASIC_N_BODY.ILK
C:\USERS\40127794\DESKTOP\CPSREPO\CPS\COURSEWORK_PART2\DEBUG\BASIC_N_BODY.EXE
C:\USERS\40127794\DESKTOP\CPSREPO\CPS\COURSEWORK_PART2\DEBUG\BASIC_N_BODY.PDB
